%YAML 1.1
%TAG !u! tag:unity3d.com,2011:
--- !u!1 &3151351396094549674
GameObject:
  m_ObjectHideFlags: 0
  m_CorrespondingSourceObject: {fileID: 0}
  m_PrefabInstance: {fileID: 0}
  m_PrefabAsset: {fileID: 0}
  serializedVersion: 6
  m_Component:
  - component: {fileID: 6978086430498674161}
  - component: {fileID: 6943801712541947057}
  m_Layer: 31
  m_Name: Palette
  m_TagString: Untagged
  m_Icon: {fileID: 0}
  m_NavMeshLayer: 0
  m_StaticEditorFlags: 0
  m_IsActive: 1
--- !u!4 &6978086430498674161
Transform:
  m_ObjectHideFlags: 0
  m_CorrespondingSourceObject: {fileID: 0}
  m_PrefabInstance: {fileID: 0}
  m_PrefabAsset: {fileID: 0}
  m_GameObject: {fileID: 3151351396094549674}
  m_LocalRotation: {x: 0, y: 0, z: 0, w: 1}
  m_LocalPosition: {x: 0, y: 0, z: 0}
  m_LocalScale: {x: 1, y: 1, z: 1}
  m_Children:
  - {fileID: 2459356650853056894}
  m_Father: {fileID: 0}
  m_RootOrder: 0
  m_LocalEulerAnglesHint: {x: 0, y: 0, z: 0}
--- !u!156049354 &6943801712541947057
Grid:
  m_ObjectHideFlags: 0
  m_CorrespondingSourceObject: {fileID: 0}
  m_PrefabInstance: {fileID: 0}
  m_PrefabAsset: {fileID: 0}
  m_GameObject: {fileID: 3151351396094549674}
  m_Enabled: 1
  m_CellSize: {x: 1, y: 1, z: 0}
  m_CellGap: {x: 0, y: 0, z: 0}
  m_CellLayout: 0
  m_CellSwizzle: 0
--- !u!1 &8891265063617313719
GameObject:
  m_ObjectHideFlags: 0
  m_CorrespondingSourceObject: {fileID: 0}
  m_PrefabInstance: {fileID: 0}
  m_PrefabAsset: {fileID: 0}
  serializedVersion: 6
  m_Component:
  - component: {fileID: 2459356650853056894}
  - component: {fileID: 2727896513453745634}
  - component: {fileID: 2736218677591521555}
  m_Layer: 31
  m_Name: Layer1
  m_TagString: Untagged
  m_Icon: {fileID: 0}
  m_NavMeshLayer: 0
  m_StaticEditorFlags: 0
  m_IsActive: 1
--- !u!4 &2459356650853056894
Transform:
  m_ObjectHideFlags: 0
  m_CorrespondingSourceObject: {fileID: 0}
  m_PrefabInstance: {fileID: 0}
  m_PrefabAsset: {fileID: 0}
  m_GameObject: {fileID: 8891265063617313719}
  m_LocalRotation: {x: -0, y: -0, z: -0, w: 1}
  m_LocalPosition: {x: 0, y: 0, z: 0}
  m_LocalScale: {x: 1, y: 1, z: 1}
  m_Children: []
  m_Father: {fileID: 6978086430498674161}
  m_RootOrder: 0
  m_LocalEulerAnglesHint: {x: 0, y: 0, z: 0}
--- !u!1839735485 &2727896513453745634
Tilemap:
  m_ObjectHideFlags: 0
  m_CorrespondingSourceObject: {fileID: 0}
  m_PrefabInstance: {fileID: 0}
  m_PrefabAsset: {fileID: 0}
  m_GameObject: {fileID: 8891265063617313719}
  m_Enabled: 1
  m_Tiles:
  - first: {x: -1, y: -3, z: 0}
    second:
      serializedVersion: 2
      m_TileIndex: 25
      m_TileSpriteIndex: 25
      m_TileMatrixIndex: 0
      m_TileColorIndex: 0
      m_TileObjectToInstantiateIndex: 65535
      m_AllTileFlags: 1073741825
  - first: {x: 0, y: -3, z: 0}
    second:
      serializedVersion: 2
      m_TileIndex: 26
      m_TileSpriteIndex: 26
      m_TileMatrixIndex: 0
      m_TileColorIndex: 0
      m_TileObjectToInstantiateIndex: 65535
      m_AllTileFlags: 1073741825
  - first: {x: 1, y: -3, z: 0}
    second:
      serializedVersion: 2
      m_TileIndex: 27
      m_TileSpriteIndex: 27
      m_TileMatrixIndex: 0
      m_TileColorIndex: 0
      m_TileObjectToInstantiateIndex: 65535
      m_AllTileFlags: 1073741825
  - first: {x: 2, y: -3, z: 0}
    second:
      serializedVersion: 2
      m_TileIndex: 28
      m_TileSpriteIndex: 28
      m_TileMatrixIndex: 0
      m_TileColorIndex: 0
      m_TileObjectToInstantiateIndex: 65535
      m_AllTileFlags: 1073741825
  - first: {x: 3, y: -3, z: 0}
    second:
      serializedVersion: 2
      m_TileIndex: 29
      m_TileSpriteIndex: 29
      m_TileMatrixIndex: 0
      m_TileColorIndex: 0
      m_TileObjectToInstantiateIndex: 65535
      m_AllTileFlags: 1073741825
  - first: {x: 4, y: -3, z: 0}
    second:
      serializedVersion: 2
      m_TileIndex: 30
      m_TileSpriteIndex: 30
      m_TileMatrixIndex: 0
      m_TileColorIndex: 0
      m_TileObjectToInstantiateIndex: 65535
      m_AllTileFlags: 1073741825
  - first: {x: 5, y: -3, z: 0}
    second:
      serializedVersion: 2
      m_TileIndex: 31
      m_TileSpriteIndex: 31
      m_TileMatrixIndex: 0
      m_TileColorIndex: 0
      m_TileObjectToInstantiateIndex: 65535
      m_AllTileFlags: 1073741825
  - first: {x: 6, y: -3, z: 0}
    second:
      serializedVersion: 2
      m_TileIndex: 32
      m_TileSpriteIndex: 32
      m_TileMatrixIndex: 0
      m_TileColorIndex: 0
      m_TileObjectToInstantiateIndex: 65535
      m_AllTileFlags: 1073741825
  - first: {x: 7, y: -3, z: 0}
    second:
      serializedVersion: 2
      m_TileIndex: 33
      m_TileSpriteIndex: 33
      m_TileMatrixIndex: 0
      m_TileColorIndex: 0
      m_TileObjectToInstantiateIndex: 65535
      m_AllTileFlags: 1073741825
  - first: {x: -1, y: -2, z: 0}
    second:
      serializedVersion: 2
      m_TileIndex: 16
      m_TileSpriteIndex: 16
      m_TileMatrixIndex: 0
      m_TileColorIndex: 0
      m_TileObjectToInstantiateIndex: 65535
      m_AllTileFlags: 1073741825
  - first: {x: 0, y: -2, z: 0}
    second:
      serializedVersion: 2
      m_TileIndex: 17
      m_TileSpriteIndex: 17
      m_TileMatrixIndex: 0
      m_TileColorIndex: 0
      m_TileObjectToInstantiateIndex: 65535
      m_AllTileFlags: 1073741825
  - first: {x: 1, y: -2, z: 0}
    second:
      serializedVersion: 2
      m_TileIndex: 18
      m_TileSpriteIndex: 18
      m_TileMatrixIndex: 0
      m_TileColorIndex: 0
      m_TileObjectToInstantiateIndex: 65535
      m_AllTileFlags: 1073741825
  - first: {x: 2, y: -2, z: 0}
    second:
      serializedVersion: 2
      m_TileIndex: 19
      m_TileSpriteIndex: 19
      m_TileMatrixIndex: 0
      m_TileColorIndex: 0
      m_TileObjectToInstantiateIndex: 65535
      m_AllTileFlags: 1073741825
  - first: {x: 3, y: -2, z: 0}
    second:
      serializedVersion: 2
      m_TileIndex: 20
      m_TileSpriteIndex: 20
      m_TileMatrixIndex: 0
      m_TileColorIndex: 0
      m_TileObjectToInstantiateIndex: 65535
      m_AllTileFlags: 1073741825
  - first: {x: 4, y: -2, z: 0}
    second:
      serializedVersion: 2
      m_TileIndex: 21
      m_TileSpriteIndex: 21
      m_TileMatrixIndex: 0
      m_TileColorIndex: 0
      m_TileObjectToInstantiateIndex: 65535
      m_AllTileFlags: 1073741825
  - first: {x: 5, y: -2, z: 0}
    second:
      serializedVersion: 2
      m_TileIndex: 22
      m_TileSpriteIndex: 22
      m_TileMatrixIndex: 0
      m_TileColorIndex: 0
      m_TileObjectToInstantiateIndex: 65535
      m_AllTileFlags: 1073741825
  - first: {x: 6, y: -2, z: 0}
    second:
      serializedVersion: 2
      m_TileIndex: 23
      m_TileSpriteIndex: 23
      m_TileMatrixIndex: 0
      m_TileColorIndex: 0
      m_TileObjectToInstantiateIndex: 65535
      m_AllTileFlags: 1073741825
  - first: {x: 7, y: -2, z: 0}
    second:
      serializedVersion: 2
      m_TileIndex: 24
      m_TileSpriteIndex: 24
      m_TileMatrixIndex: 0
      m_TileColorIndex: 0
      m_TileObjectToInstantiateIndex: 65535
      m_AllTileFlags: 1073741825
  - first: {x: -1, y: -1, z: 0}
    second:
      serializedVersion: 2
      m_TileIndex: 7
      m_TileSpriteIndex: 7
      m_TileMatrixIndex: 0
      m_TileColorIndex: 0
      m_TileObjectToInstantiateIndex: 65535
      m_AllTileFlags: 1073741825
  - first: {x: 0, y: -1, z: 0}
    second:
      serializedVersion: 2
      m_TileIndex: 8
      m_TileSpriteIndex: 8
      m_TileMatrixIndex: 0
      m_TileColorIndex: 0
      m_TileObjectToInstantiateIndex: 65535
      m_AllTileFlags: 1073741825
  - first: {x: 1, y: -1, z: 0}
    second:
      serializedVersion: 2
      m_TileIndex: 9
      m_TileSpriteIndex: 9
      m_TileMatrixIndex: 0
      m_TileColorIndex: 0
      m_TileObjectToInstantiateIndex: 65535
      m_AllTileFlags: 1073741825
  - first: {x: 2, y: -1, z: 0}
    second:
      serializedVersion: 2
      m_TileIndex: 10
      m_TileSpriteIndex: 10
      m_TileMatrixIndex: 0
      m_TileColorIndex: 0
      m_TileObjectToInstantiateIndex: 65535
      m_AllTileFlags: 1073741825
  - first: {x: 3, y: -1, z: 0}
    second:
      serializedVersion: 2
      m_TileIndex: 11
      m_TileSpriteIndex: 11
      m_TileMatrixIndex: 0
      m_TileColorIndex: 0
      m_TileObjectToInstantiateIndex: 65535
      m_AllTileFlags: 1073741825
  - first: {x: 4, y: -1, z: 0}
    second:
      serializedVersion: 2
      m_TileIndex: 12
      m_TileSpriteIndex: 12
      m_TileMatrixIndex: 0
      m_TileColorIndex: 0
      m_TileObjectToInstantiateIndex: 65535
      m_AllTileFlags: 1073741825
  - first: {x: 5, y: -1, z: 0}
    second:
      serializedVersion: 2
      m_TileIndex: 13
      m_TileSpriteIndex: 13
      m_TileMatrixIndex: 0
      m_TileColorIndex: 0
      m_TileObjectToInstantiateIndex: 65535
      m_AllTileFlags: 1073741825
  - first: {x: 6, y: -1, z: 0}
    second:
      serializedVersion: 2
      m_TileIndex: 14
      m_TileSpriteIndex: 14
      m_TileMatrixIndex: 0
      m_TileColorIndex: 0
      m_TileObjectToInstantiateIndex: 65535
      m_AllTileFlags: 1073741825
  - first: {x: 7, y: -1, z: 0}
    second:
      serializedVersion: 2
      m_TileIndex: 15
      m_TileSpriteIndex: 15
      m_TileMatrixIndex: 0
      m_TileColorIndex: 0
      m_TileObjectToInstantiateIndex: 65535
      m_AllTileFlags: 1073741825
  - first: {x: 2, y: 0, z: 0}
    second:
      serializedVersion: 2
      m_TileIndex: 0
      m_TileSpriteIndex: 0
      m_TileMatrixIndex: 0
      m_TileColorIndex: 0
      m_TileObjectToInstantiateIndex: 65535
      m_AllTileFlags: 1073741825
  - first: {x: 3, y: 0, z: 0}
    second:
      serializedVersion: 2
      m_TileIndex: 1
      m_TileSpriteIndex: 1
      m_TileMatrixIndex: 0
      m_TileColorIndex: 0
      m_TileObjectToInstantiateIndex: 65535
      m_AllTileFlags: 1073741825
  - first: {x: 4, y: 0, z: 0}
    second:
      serializedVersion: 2
      m_TileIndex: 2
      m_TileSpriteIndex: 2
      m_TileMatrixIndex: 0
      m_TileColorIndex: 0
      m_TileObjectToInstantiateIndex: 65535
      m_AllTileFlags: 1073741825
  - first: {x: 5, y: 0, z: 0}
    second:
      serializedVersion: 2
      m_TileIndex: 3
      m_TileSpriteIndex: 3
      m_TileMatrixIndex: 0
      m_TileColorIndex: 0
      m_TileObjectToInstantiateIndex: 65535
      m_AllTileFlags: 1073741825
  - first: {x: 6, y: 0, z: 0}
    second:
      serializedVersion: 2
      m_TileIndex: 4
      m_TileSpriteIndex: 4
      m_TileMatrixIndex: 0
      m_TileColorIndex: 0
      m_TileObjectToInstantiateIndex: 65535
      m_AllTileFlags: 1073741825
  - first: {x: 7, y: 0, z: 0}
    second:
      serializedVersion: 2
      m_TileIndex: 5
      m_TileSpriteIndex: 5
      m_TileMatrixIndex: 0
      m_TileColorIndex: 0
      m_TileObjectToInstantiateIndex: 65535
      m_AllTileFlags: 1073741825
  - first: {x: 8, y: 0, z: 0}
    second:
      serializedVersion: 2
      m_TileIndex: 6
      m_TileSpriteIndex: 6
      m_TileMatrixIndex: 0
      m_TileColorIndex: 0
      m_TileObjectToInstantiateIndex: 65535
      m_AllTileFlags: 1073741825
  m_AnimatedTiles: {}
  m_TileAssetArray:
  - m_RefCount: 1
    m_Data: {fileID: 11400000, guid: 90480996e346b814b97c476dbdeca9fe, type: 2}
  - m_RefCount: 1
    m_Data: {fileID: 11400000, guid: 398fa9127513b4341b19c3340ab523d1, type: 2}
  - m_RefCount: 1
    m_Data: {fileID: 11400000, guid: 44c368975d49ebb4aa813c038b1d1d1d, type: 2}
  - m_RefCount: 1
    m_Data: {fileID: 11400000, guid: 682c2ba5bb132824b987483b035e014e, type: 2}
  - m_RefCount: 1
    m_Data: {fileID: 11400000, guid: 00602a24b1d4ea0468986d03dc5880d0, type: 2}
  - m_RefCount: 1
    m_Data: {fileID: 11400000, guid: d9bd33bdb7f092a47b2f1654425545bd, type: 2}
  - m_RefCount: 1
    m_Data: {fileID: 11400000, guid: db279f3e0393279408e64034a42375c1, type: 2}
  - m_RefCount: 1
    m_Data: {fileID: 11400000, guid: 9ae01ac8d0c25704fb8cd2a1542dcad4, type: 2}
  - m_RefCount: 1
    m_Data: {fileID: 11400000, guid: 80e0e2ee899ecee42a25e02142d40ff8, type: 2}
  - m_RefCount: 1
    m_Data: {fileID: 11400000, guid: 485dad2b1f97b2349ae0b99602e88596, type: 2}
  - m_RefCount: 1
    m_Data: {fileID: 11400000, guid: e0b7bf16a7b093e41917427a6fc7d18d, type: 2}
  - m_RefCount: 1
    m_Data: {fileID: 11400000, guid: acb63a36460cee348ad510cd2b509e8f, type: 2}
  - m_RefCount: 1
    m_Data: {fileID: 11400000, guid: 4a632fa7915567b4183d8486607cf4ce, type: 2}
  - m_RefCount: 1
    m_Data: {fileID: 11400000, guid: 5f0983edafa56d6449365a8b81cf30f7, type: 2}
  - m_RefCount: 1
    m_Data: {fileID: 11400000, guid: e03a35aca2445cf428cc75c504cb58a1, type: 2}
  - m_RefCount: 1
    m_Data: {fileID: 11400000, guid: c1455e984e0808149b35b9c96b4e79a0, type: 2}
  - m_RefCount: 1
    m_Data: {fileID: 11400000, guid: eac89df7aa52ad64e998ea9ee5862077, type: 2}
  - m_RefCount: 1
    m_Data: {fileID: 11400000, guid: 62b60a8d25fe14f40967fa0b75acf91a, type: 2}
  - m_RefCount: 1
    m_Data: {fileID: 11400000, guid: 2ef17f11ec09e984b88f0857ddc3f0e8, type: 2}
  - m_RefCount: 1
    m_Data: {fileID: 11400000, guid: 2ed89af9e99caad4a8dfe7be6e8a29c8, type: 2}
  - m_RefCount: 1
    m_Data: {fileID: 11400000, guid: 15e248cb1f630814e9d28a235f6b3c77, type: 2}
  - m_RefCount: 1
    m_Data: {fileID: 11400000, guid: 85545768061249d448adee2a85222e17, type: 2}
  - m_RefCount: 1
    m_Data: {fileID: 11400000, guid: c2f17e61840cb0446a9e6fe9924174ad, type: 2}
  - m_RefCount: 1
    m_Data: {fileID: 11400000, guid: ae4b8d6fca318a443a4ad303e2f3b05c, type: 2}
  - m_RefCount: 1
    m_Data: {fileID: 11400000, guid: da27bd9f91c7e70449c63f6c3728d9e5, type: 2}
  - m_RefCount: 1
    m_Data: {fileID: 11400000, guid: 548ab1db44bf1b94e879488486fe7966, type: 2}
  - m_RefCount: 1
    m_Data: {fileID: 11400000, guid: 8953c030162e5264593daae3bf3ef3bf, type: 2}
  - m_RefCount: 1
    m_Data: {fileID: 11400000, guid: 0fe62aa1ae8ee394f945da31f28761ea, type: 2}
  - m_RefCount: 1
    m_Data: {fileID: 11400000, guid: 530d6d88b19583946aefca44dc171f92, type: 2}
  - m_RefCount: 1
    m_Data: {fileID: 11400000, guid: 82a6110f413fa1840a4d4a2b55034cb9, type: 2}
  - m_RefCount: 1
    m_Data: {fileID: 11400000, guid: bf89eebbb626b904fa5a42a61e461f7a, type: 2}
  - m_RefCount: 1
    m_Data: {fileID: 11400000, guid: d2a1ff965c1469d408aaff7354f31db1, type: 2}
  - m_RefCount: 1
    m_Data: {fileID: 11400000, guid: ca5d032eaddbcec41a2dc458c222289d, type: 2}
  - m_RefCount: 1
    m_Data: {fileID: 11400000, guid: 5208e5edf37239d4284ccf3dc0d0c91a, type: 2}
  m_TileSpriteArray:
  - m_RefCount: 1
    m_Data: {fileID: 21300000, guid: 424959e680f65d34d87fffa6b6338a26, type: 3}
  - m_RefCount: 1
    m_Data: {fileID: 21300002, guid: 424959e680f65d34d87fffa6b6338a26, type: 3}
  - m_RefCount: 1
    m_Data: {fileID: 21300004, guid: 424959e680f65d34d87fffa6b6338a26, type: 3}
  - m_RefCount: 1
    m_Data: {fileID: 21300006, guid: 424959e680f65d34d87fffa6b6338a26, type: 3}
  - m_RefCount: 1
    m_Data: {fileID: 21300008, guid: 424959e680f65d34d87fffa6b6338a26, type: 3}
  - m_RefCount: 1
    m_Data: {fileID: 21300010, guid: 424959e680f65d34d87fffa6b6338a26, type: 3}
  - m_RefCount: 1
    m_Data: {fileID: 21300012, guid: 424959e680f65d34d87fffa6b6338a26, type: 3}
  - m_RefCount: 1
    m_Data: {fileID: 21300014, guid: 424959e680f65d34d87fffa6b6338a26, type: 3}
  - m_RefCount: 1
    m_Data: {fileID: 21300016, guid: 424959e680f65d34d87fffa6b6338a26, type: 3}
  - m_RefCount: 1
    m_Data: {fileID: 21300018, guid: 424959e680f65d34d87fffa6b6338a26, type: 3}
  - m_RefCount: 1
    m_Data: {fileID: 21300020, guid: 424959e680f65d34d87fffa6b6338a26, type: 3}
  - m_RefCount: 1
    m_Data: {fileID: 21300022, guid: 424959e680f65d34d87fffa6b6338a26, type: 3}
  - m_RefCount: 1
    m_Data: {fileID: 21300024, guid: 424959e680f65d34d87fffa6b6338a26, type: 3}
  - m_RefCount: 1
    m_Data: {fileID: 21300026, guid: 424959e680f65d34d87fffa6b6338a26, type: 3}
  - m_RefCount: 1
    m_Data: {fileID: 21300028, guid: 424959e680f65d34d87fffa6b6338a26, type: 3}
  - m_RefCount: 1
    m_Data: {fileID: 21300030, guid: 424959e680f65d34d87fffa6b6338a26, type: 3}
  - m_RefCount: 1
    m_Data: {fileID: 21300032, guid: 424959e680f65d34d87fffa6b6338a26, type: 3}
  - m_RefCount: 1
    m_Data: {fileID: 21300034, guid: 424959e680f65d34d87fffa6b6338a26, type: 3}
  - m_RefCount: 1
    m_Data: {fileID: 21300036, guid: 424959e680f65d34d87fffa6b6338a26, type: 3}
  - m_RefCount: 1
    m_Data: {fileID: 21300038, guid: 424959e680f65d34d87fffa6b6338a26, type: 3}
  - m_RefCount: 1
    m_Data: {fileID: 21300040, guid: 424959e680f65d34d87fffa6b6338a26, type: 3}
  - m_RefCount: 1
    m_Data: {fileID: 21300042, guid: 424959e680f65d34d87fffa6b6338a26, type: 3}
  - m_RefCount: 1
    m_Data: {fileID: 21300044, guid: 424959e680f65d34d87fffa6b6338a26, type: 3}
  - m_RefCount: 1
    m_Data: {fileID: 21300046, guid: 424959e680f65d34d87fffa6b6338a26, type: 3}
  - m_RefCount: 1
    m_Data: {fileID: 21300048, guid: 424959e680f65d34d87fffa6b6338a26, type: 3}
  - m_RefCount: 1
    m_Data: {fileID: 21300050, guid: 424959e680f65d34d87fffa6b6338a26, type: 3}
  - m_RefCount: 1
    m_Data: {fileID: 21300052, guid: 424959e680f65d34d87fffa6b6338a26, type: 3}
  - m_RefCount: 1
    m_Data: {fileID: 21300054, guid: 424959e680f65d34d87fffa6b6338a26, type: 3}
  - m_RefCount: 1
    m_Data: {fileID: 21300056, guid: 424959e680f65d34d87fffa6b6338a26, type: 3}
  - m_RefCount: 1
    m_Data: {fileID: 21300058, guid: 424959e680f65d34d87fffa6b6338a26, type: 3}
  - m_RefCount: 1
    m_Data: {fileID: 21300060, guid: 424959e680f65d34d87fffa6b6338a26, type: 3}
  - m_RefCount: 1
    m_Data: {fileID: 21300062, guid: 424959e680f65d34d87fffa6b6338a26, type: 3}
  - m_RefCount: 1
    m_Data: {fileID: 21300064, guid: 424959e680f65d34d87fffa6b6338a26, type: 3}
  - m_RefCount: 1
    m_Data: {fileID: 21300066, guid: 424959e680f65d34d87fffa6b6338a26, type: 3}
  m_TileMatrixArray:
  - m_RefCount: 34
    m_Data:
      e00: 1
      e01: 0
      e02: 0
      e03: 0
      e10: 0
      e11: 1
      e12: 0
      e13: 0
      e20: 0
      e21: 0
      e22: 1
      e23: 0
      e30: 0
      e31: 0
      e32: 0
      e33: 1
  m_TileColorArray:
  - m_RefCount: 34
    m_Data: {r: 1, g: 1, b: 1, a: 1}
  m_TileObjectToInstantiateArray: []
  m_AnimationFrameRate: 1
  m_Color: {r: 1, g: 1, b: 1, a: 1}
  m_Origin: {x: -1, y: -3, z: 0}
  m_Size: {x: 10, y: 4, z: 1}
  m_TileAnchor: {x: 0.5, y: 0.5, z: 0}
  m_TileOrientation: 0
  m_TileOrientationMatrix:
    e00: 1
    e01: 0
    e02: 0
    e03: 0
    e10: 0
    e11: 1
    e12: 0
    e13: 0
    e20: 0
    e21: 0
    e22: 1
    e23: 0
    e30: 0
    e31: 0
    e32: 0
    e33: 1
--- !u!483693784 &2736218677591521555
TilemapRenderer:
  m_ObjectHideFlags: 0
  m_CorrespondingSourceObject: {fileID: 0}
  m_PrefabInstance: {fileID: 0}
  m_PrefabAsset: {fileID: 0}
  m_GameObject: {fileID: 8891265063617313719}
  m_Enabled: 0
  m_CastShadows: 0
  m_ReceiveShadows: 0
  m_DynamicOccludee: 0
  m_MotionVectors: 1
  m_LightProbeUsage: 0
  m_ReflectionProbeUsage: 0
  m_RayTracingMode: 0
  m_RenderingLayerMask: 1
  m_RendererPriority: 0
  m_Materials:
  - {fileID: 10754, guid: 0000000000000000f000000000000000, type: 0}
  m_StaticBatchInfo:
    firstSubMesh: 0
    subMeshCount: 0
  m_StaticBatchRoot: {fileID: 0}
  m_ProbeAnchor: {fileID: 0}
  m_LightProbeVolumeOverride: {fileID: 0}
  m_ScaleInLightmap: 1
  m_ReceiveGI: 1
  m_PreserveUVs: 0
  m_IgnoreNormalsForChartDetection: 0
  m_ImportantGI: 0
  m_StitchLightmapSeams: 0
  m_SelectedEditorRenderState: 0
  m_MinimumChartSize: 4
  m_AutoUVMaxDistance: 0.5
  m_AutoUVMaxAngle: 89
  m_LightmapParameters: {fileID: 0}
  m_SortingLayerID: 0
  m_SortingLayer: 0
  m_SortingOrder: 0
  m_ChunkSize: {x: 32, y: 32, z: 32}
  m_ChunkCullingBounds: {x: 0, y: 0, z: 0}
  m_MaxChunkCount: 16
  m_MaxFrameAge: 16
  m_SortOrder: 0
  m_Mode: 0
  m_DetectChunkCullingBounds: 0
  m_MaskInteraction: 0
--- !u!114 &114857161410468700
MonoBehaviour:
  m_ObjectHideFlags: 0
  m_CorrespondingSourceObject: {fileID: 0}
  m_PrefabInstance: {fileID: 0}
  m_PrefabAsset: {fileID: 0}
  m_GameObject: {fileID: 0}
  m_Enabled: 1
  m_EditorHideFlags: 0
  m_Script: {fileID: 12395, guid: 0000000000000000e000000000000000, type: 0}
  m_Name: Palette Settings
  m_EditorClassIdentifier: 
  cellSizing: 0
